sim/riscv.vcd
$date
	Sat Oct 09 16:04:42 2021
$end
$version
	Icarus Verilog
$end
$timescale
	1ps
$end
$scope module tb_riscv_top $end
$var wire 32 ! ins [31:0] $end
$var wire 32 " PC [31:0] $end
$var reg 1 # clk $end
$var reg 1 $ reset $end
$scope module uut $end
$var wire 1 # clk $end
$var wire 32 % ins [31:0] $end
$var wire 1 $ reset $end
$var wire 1 & zero $end
$var wire 32 ' write_dataPC4 [31:0] $end
$var wire 32 ( write_dataM [31:0] $end
$var wire 1 ) write_PC4 $end
$var wire 1 * shift_i $end
$var wire 1 + jalr $end
$var wire 32 , access [31:0] $end
$var wire 1 - RegWrite $end
$var wire 1 . PCSrc $end
$var wire 32 / PC [31:0] $end
$var wire 1 0 MemtoReg $end
$var wire 1 1 MemWrite $end
$var wire 1 2 MemRead $end
$var wire 32 3 Instruction [31:0] $end
$var wire 32 4 ALU_dataB [31:0] $end
$var wire 32 5 ALU_dataA [31:0] $end
$var wire 32 6 ALU_OUT [31:0] $end
$var wire 4 7 ALU_OP [3:0] $end
$var wire 1 8 ALUSrc $end
$scope module c0 $end
$var wire 1 9 signed_bit $end
$var wire 1 & zero $end
$var wire 1 ) write_PC4 $end
$var wire 7 : opcode [6:0] $end
$var wire 1 + jalr $end
$var wire 7 ; funct7 [6:0] $end
$var wire 3 < funct3 [2:0] $end
$var wire 1 0 MemtoReg $end
$var wire 1 1 MemWrite $end
$var wire 1 2 MemRead $end
$var wire 32 = Instruction [31:0] $end
$var reg 1 8 ALUSrc $end
$var reg 4 > ALU_OP [3:0] $end
$var reg 1 . PCSrc $end
$var reg 1 - RegWrite $end
$var reg 1 * shift_i $end
$upscope $end
$scope module u0 $end
$var wire 1 . PCSrc $end
$var wire 1 # clk $end
$var wire 1 + jalr $end
$var wire 1 $ reset $end
$var wire 7 ? opcode [6:0] $end
$var wire 32 @ jalr_address [31:0] $end
$var wire 32 A imm_J [31:0] $end
$var wire 32 B imm_B [31:0] $end
$var wire 32 C branch_jump_address [31:0] $end
$var wire 32 D PC_offset [31:0] $end
$var wire 32 E PC [31:0] $end
$var wire 32 F Instruction [31:0] $end
$scope module u0 $end
$var wire 1 . PCSrc $end
$var wire 32 G branch_jump_address [31:0] $end
$var wire 1 # clk $end
$var wire 1 $ reset $end
$var reg 32 H Instruction_address [31:0] $end
$upscope $end
$scope module u1 $end
$var wire 32 I Instruction [31:0] $end
$var wire 32 J Instruction_address [31:0] $end
$upscope $end
$upscope $end
$scope module u1 $end
$var wire 1 8 ALUSrc $end
$var wire 32 K ALU_dataA [31:0] $end
$var wire 32 L Instruction [31:0] $end
$var wire 1 - RegWrite $end
$var wire 1 # clk $end
$var wire 1 $ reset $end
$var wire 1 * shift_i $end
$var wire 1 ) write_PC4 $end
$var wire 32 M write_dataM [31:0] $end
$var wire 32 N write_dataPC4 [31:0] $end
$var wire 32 O write_dataR [31:0] $end
$var wire 32 P write_data [31:0] $end
$var wire 5 Q rs2 [4:0] $end
$var wire 5 R rs1 [4:0] $end
$var wire 32 S read_dataB1 [31:0] $end
$var wire 32 T read_dataB [31:0] $end
$var wire 32 U read_dataA [31:0] $end
$var wire 5 V rd [4:0] $end
$var wire 32 W imm_out [31:0] $end
$var wire 32 X ALU_dataB [31:0] $end
$scope module u0 $end
$var wire 32 Y Instruction [31:0] $end
$var wire 7 Z opcode [6:0] $end
$var wire 32 [ imm_out [31:0] $end
$var wire 32 \ imm_S [31:0] $end
$var wire 32 ] imm_I [31:0] $end
$upscope $end
$scope module u1 $end
$var wire 1 - RegWrite $end
$var wire 1 # clk $end
$var wire 5 ^ read_addressA [4:0] $end
$var wire 5 _ read_addressB [4:0] $end
$var wire 1 $ reset $end
$var wire 5 ` write_address [4:0] $end
$var wire 32 a write_data [31:0] $end
$var wire 32 b read_dataB [31:0] $end
$var wire 32 c read_dataA [31:0] $end
$var integer 32 d i [31:0] $end
$upscope $end
$upscope $end
$scope module u2 $end
$var wire 4 e ALU_OP [3:0] $end
$var wire 32 f and_gate [31:0] $end
$var wire 32 g data_A [31:0] $end
$var wire 32 h data_B [31:0] $end
$var wire 32 i or_gate [31:0] $end
$var wire 32 j xor_gate [31:0] $end
$var wire 1 & zero $end
$var wire 32 k sub [31:0] $end
$var wire 32 l srl [31:0] $end
$var wire 32 m sll [31:0] $end
$var wire 32 n add [31:0] $end
$var reg 32 o ALU_OUT [31:0] $end
$scope module u0 $end
$var wire 32 p a [31:0] $end
$var wire 32 q b [31:0] $end
$var wire 33 r c [32:0] $end
$var wire 1 s sw $end
$var wire 32 t sum [31:0] $end
$var wire 32 u b_xor [31:0] $end
$var wire 32 v P [31:0] $end
$var wire 32 w G [31:0] $end
$scope begin genblk1[0] $end
$upscope $end
$scope begin genblk1[1] $end
$upscope $end
$scope begin genblk1[2] $end
$upscope $end
$scope begin genblk1[3] $end
$upscope $end
$scope begin genblk1[4] $end
$upscope $end
$scope begin genblk1[5] $end
$upscope $end
$scope begin genblk1[6] $end
$upscope $end
$scope begin genblk1[7] $end
$upscope $end
$scope begin genblk1[8] $end
$upscope $end
$scope begin genblk1[9] $end
$upscope $end
$scope begin genblk1[10] $end
$upscope $end
$scope begin genblk1[11] $end
$upscope $end
$scope begin genblk1[12] $end
$upscope $end
$scope begin genblk1[13] $end
$upscope $end
$scope begin genblk1[14] $end
$upscope $end
$scope begin genblk1[15] $end
$upscope $end
$scope begin genblk1[16] $end
$upscope $end
$scope begin genblk1[17] $end
$upscope $end
$scope begin genblk1[18] $end
$upscope $end
$scope begin genblk1[19] $end
$upscope $end
$scope begin genblk1[20] $end
$upscope $end
$scope begin genblk1[21] $end
$upscope $end
$scope begin genblk1[22] $end
$upscope $end
$scope begin genblk1[23] $end
$upscope $end
$scope begin genblk1[24] $end
$upscope $end
$scope begin genblk1[25] $end
$upscope $end
$scope begin genblk1[26] $end
$upscope $end
$scope begin genblk1[27] $end
$upscope $end
$scope begin genblk1[28] $end
$upscope $end
$scope begin genblk1[29] $end
$upscope $end
$scope begin genblk1[30] $end
$upscope $end
$scope begin genblk1[31] $end
$upscope $end
$upscope $end
$scope module u1 $end
$var wire 32 x a [31:0] $end
$var wire 32 y b [31:0] $end
$var wire 1 z sw $end
$var wire 32 { sum [31:0] $end
$var wire 33 | c [32:0] $end
$var wire 32 } b_xor [31:0] $end
$var wire 32 ~ P [31:0] $end
$var wire 32 !" G [31:0] $end
$scope begin genblk1[0] $end
$upscope $end
$scope begin genblk1[1] $end
$upscope $end
$scope begin genblk1[2] $end
$upscope $end
$scope begin genblk1[3] $end
$upscope $end
$scope begin genblk1[4] $end
$upscope $end
$scope begin genblk1[5] $end
$upscope $end
$scope begin genblk1[6] $end
$upscope $end
$scope begin genblk1[7] $end
$upscope $end
$scope begin genblk1[8] $end
$upscope $end
$scope begin genblk1[9] $end
$upscope $end
$scope begin genblk1[10] $end
$upscope $end
$scope begin genblk1[11] $end
$upscope $end
$scope begin genblk1[12] $end
$upscope $end
$scope begin genblk1[13] $end
$upscope $end
$scope begin genblk1[14] $end
$upscope $end
$scope begin genblk1[15] $end
$upscope $end
$scope begin genblk1[16] $end
$upscope $end
$scope begin genblk1[17] $end
$upscope $end
$scope begin genblk1[18] $end
$upscope $end
$scope begin genblk1[19] $end
$upscope $end
$scope begin genblk1[20] $end
$upscope $end
$scope begin genblk1[21] $end
$upscope $end
$scope begin genblk1[22] $end
$upscope $end
$scope begin genblk1[23] $end
$upscope $end
$scope begin genblk1[24] $end
$upscope $end
$scope begin genblk1[25] $end
$upscope $end
$scope begin genblk1[26] $end
$upscope $end
$scope begin genblk1[27] $end
$upscope $end
$scope begin genblk1[28] $end
$upscope $end
$scope begin genblk1[29] $end
$upscope $end
$scope begin genblk1[30] $end
$upscope $end
$scope begin genblk1[31] $end
$upscope $end
$upscope $end
$upscope $end
$scope module u3 $end
$var wire 1 2 MemRead $end
$var wire 1 1 MemWrite $end
$var wire 32 "" Mem_address [31:0] $end
$var wire 1 0 MemtoReg $end
$var wire 1 # clk $end
$var wire 32 #" write_dataM [31:0] $end
$var wire 32 $" access [31:0] $end
$var wire 32 %" Read_data [31:0] $end
$scope module u0 $end
$var wire 1 2 MemRead $end
$var wire 1 1 MemWrite $end
$var wire 32 &" address [31:0] $end
$var wire 1 # clk $end
$var wire 32 '" write_data [31:0] $end
$var wire 32 (" Read_data [31:0] $end
$upscope $end
$upscope $end
$upscope $end
$upscope $end
$enddefinitions $end
#0
$dumpvars
bx ("
bx '"
bx &"
bx %"
bx $"
bx #"
bx ""
bx !"
bx ~
bx }
bx1 |
bx {
1z
bx y
bx x
bx w
bx v
bx u
bx t
0s
bx0 r
bx q
bx p
bx o
bx n
bx m
bx l
bx k
bx j
bx i
bx h
bx g
bx f
bx e
bx d
bx c
bx b
bx a
bx `
bx _
bx ^
bx ]
bx \
bx [
bx Z
bx Y
bx X
bx W
bx V
bx U
bx T
bx S
bx R
bx Q
bx P
bx O
bx N
bx M
bx L
bx K
bx J
bx I
bx H
bx G
bx F
bx E
bx0 D
bx C
bx0 B
bx0 A
bx @
bx ?
bx >
bx =
bx <
bx ;
bx :
x9
x8
bx 7
bx 6
bx 5
bx 4
bx 3
x2
x1
x0
bx /
0.
x-
bx ,
x+
x*
x)
bx (
bx '
x&
bx %
0$
0#
bx "
bx !
$end
#1000
09
0&
b10100 P
b10100 a
b10100 ,
b10100 O
b10100 $"
b10100 6
b10100 @
b10100 o
b10100 ""
b10100 &"
b111 |
b10100 n
b10100 t
b11111111111111111111111111101100 k
b11111111111111111111111111101100 {
b10100 v
b11111111111111111111111111101011 ~
b10100 u
b11111111111111111111111111101011 }
b0 r
b10100 i
b10100 j
b0 m
b0 l
b10100 4
b10100 X
b10100 h
b10100 q
b10100 y
b0 w
b0 !"
b10100 S
bz %"
bz ("
b0 f
b10100 W
b10100 [
b100000000100 C
b100000000100 G
0+
0)
02
01
00
b0 5
b0 K
b0 g
b0 p
b0 x
b0 U
b0 c
b0 (
b0 M
b0 #"
b0 '"
b0 T
b0 b
b100000000100 D
b101 7
b101 >
b101 e
0*
18
1-
b0 R
b0 ^
b10100 Q
b10100 _
b101 V
b101 `
b10011 Z
b10100 ]
b101 \
b10100 A
b100000000100 B
b10011 ?
b0 ;
b0 <
b10011 :
b1010000000000001010010011 !
b1010000000000001010010011 %
b1010000000000001010010011 3
b1010000000000001010010011 =
b1010000000000001010010011 F
b1010000000000001010010011 I
b1010000000000001010010011 L
b1010000000000001010010011 Y
b100 '
b100 N
b0 "
b0 /
b0 E
b0 H
b0 J
b100000 d
1$
#2000
0$
#5000
b100011 P
b100011 a
b100011 ,
b100011 O
b100011 $"
b1 |
b100011 6
b100011 @
b100011 o
b100011 ""
b100011 &"
b100011 n
b100011 t
b11111111111111111111111111011101 k
b11111111111111111111111111011101 {
b100011 v
b11111111111111111111111111011100 ~
b100011 u
b11111111111111111111111111011100 }
b100011 i
b100011 j
b100011 4
b100011 X
b100011 h
b100011 q
b100011 y
b100011 S
b100011 W
b100011 [
b100110 D
b11 Q
b11 _
b110 V
b110 `
b100011 ]
b100110 \
b100000100010 A
b100110 B
b1 ;
b101010 C
b101010 G
b10001100000000001100010011 !
b10001100000000001100010011 %
b10001100000000001100010011 3
b10001100000000001100010011 =
b10001100000000001100010011 F
b10001100000000001100010011 I
b10001100000000001100010011 L
b10001100000000001100010011 Y
b1000 '
b1000 N
b100 "
b100 /
b100 E
b100 H
b100 J
1#
#10000
0#
#15000
b110001 P
b110001 a
b110001 ,
b110001 O
b110001 $"
b110001 6
b110001 @
b110001 o
b110001 ""
b110001 &"
b110001 n
b110001 t
b11111111111111111111111111001111 k
b11111111111111111111111111001111 {
b110001 v
b11111111111111111111111111001110 ~
b110001 u
b11111111111111111111111111001110 }
b110001 i
b110001 j
b110001 4
b110001 X
b110001 h
b110001 q
b110001 y
b110001 S
b110001 W
b110001 [
b100000100110 D
b10001 Q
b10001 _
b111 V
b111 `
b110001 ]
b100111 \
b100000110000 A
b100000100110 B
b100000101110 C
b100000101110 G
b11000100000000001110010011 !
b11000100000000001110010011 %
b11000100000000001110010011 3
b11000100000000001110010011 =
b11000100000000001110010011 F
b11000100000000001110010011 I
b11000100000000001110010011 L
b11000100000000001110010011 Y
b1100 '
b1100 N
b1000 "
b1000 /
b1000 E
b1000 H
b1000 J
1#
#20000
0#
#25000
b1010100 P
b1010100 a
b1010100 ,
b1010100 O
b1010100 $"
b1010100 6
b1010100 @
b1010100 o
b1010100 ""
b1010100 &"
b1000110 r
b1010100 n
b1010100 t
b11111 |
b11111111111111111111111111110010 k
b11111111111111111111111111110010 {
b100001 w
b10010 v
b10 !"
b11111111111111111111111111101101 ~
b100001 f
b110011 i
b10010 j
b0 W
b0 [
b100011 5
b100011 K
b100011 g
b100011 p
b100011 x
b100011 U
b100011 c
b110001 (
b110001 M
b110001 #"
b110001 '"
b110001 T
b110001 b
b100000000100 D
08
b110 R
b110 ^
b111 Q
b111 _
b101 V
b101 `
b110011 Z
b111 ]
b101 \
b110000100000000110 A
b100000000100 B
b110011 ?
b0 ;
b110011 :
b100000010000 C
b100000010000 G
b11100110000001010110011 !
b11100110000001010110011 %
b11100110000001010110011 3
b11100110000001010110011 =
b11100110000001010110011 F
b11100110000001010110011 I
b11100110000001010110011 L
b11100110000001010110011 Y
b10000 '
b10000 N
b1100 "
b1100 /
b1100 E
b1100 H
b1100 J
1#
#30000
0#
#35000
1&
b0 P
b0 a
b0 ,
b0 O
b0 $"
b111111111111111111111111111111111 |
b0 6
b0 @
b0 o
b0 ""
b0 &"
b0 r
b0 n
b0 t
b0 k
b0 {
b0 u
b11111111111111111111111111111111 }
b0 w
b0 v
b0 !"
b11111111111111111111111111111111 ~
b0 4
b0 X
b0 h
b0 q
b0 y
b0 f
b0 i
b0 j
11
b0 S
b0 5
b0 K
b0 g
b0 p
b0 x
b0 U
b0 c
b1010100 (
b1010100 M
b1010100 #"
b1010100 '"
b1010100 T
b1010100 b
b0 D
18
0-
b0 R
b0 ^
b101 Q
b101 _
b0 V
b0 `
b100011 Z
b101 ]
b0 \
b10100000000100 A
b0 B
b100011 ?
b10 <
b100011 :
b10000 C
b10000 G
b10100000010000000100011 !
b10100000010000000100011 %
b10100000010000000100011 3
b10100000010000000100011 =
b10100000010000000100011 F
b10100000010000000100011 I
b10100000010000000100011 L
b10100000010000000100011 Y
b10100 '
b10100 N
b10000 "
b10000 /
b10000 E
b10000 H
b10000 J
1#
#40000
0#
#45000
0&
b100 P
b100 a
b100 ,
b100 O
b100 $"
b100 6
b100 @
b100 o
b100 ""
b100 &"
b111 |
b100 n
b100 t
b11111111111111111111111111111100 k
b11111111111111111111111111111100 {
b100 v
b11111111111111111111111111111011 ~
b100 u
b11111111111111111111111111111011 }
b100 i
b100 j
b100 4
b100 X
b100 h
b100 q
b100 y
b100 S
b100 W
b100 [
b100011 (
b100011 M
b100011 #"
b100011 '"
b100011 T
b100011 b
b100 D
b110 Q
b110 _
b100 V
b100 `
b110 ]
b100 \
b10000000000110 A
b100 B
b11000 C
b11000 G
b11000000010001000100011 !
b11000000010001000100011 %
b11000000010001000100011 3
b11000000010001000100011 =
b11000000010001000100011 F
b11000000010001000100011 I
b11000000010001000100011 L
b11000000010001000100011 Y
b11000 '
b11000 N
b10100 "
b10100 /
b10100 E
b10100 H
b10100 J
1#
#50000
0#
#55000
b1000 P
b1000 a
b1000 ,
b1000 O
b1000 $"
b1111 |
b1000 6
b1000 @
b1000 o
b1000 ""
b1000 &"
b1000 n
b1000 t
b11111111111111111111111111111000 k
b11111111111111111111111111111000 {
b1000 v
b11111111111111111111111111110111 ~
b1000 u
b11111111111111111111111111110111 }
b1000 i
b1000 j
b1000 4
b1000 X
b1000 h
b1000 q
b1000 y
b1000 S
b1000 W
b1000 [
b110001 (
b110001 M
b110001 #"
b110001 '"
b110001 T
b110001 b
b1000 D
b111 Q
b111 _
b1000 V
b1000 `
b111 ]
b1000 \
b10100000000110 A
b1000 B
b100000 C
b100000 G
b11100000010010000100011 !
b11100000010010000100011 %
b11100000010010000100011 3
b11100000010010000100011 =
b11100000010010000100011 F
b11100000010010000100011 I
b11100000010010000100011 L
b11100000010010000100011 Y
b11100 '
b11100 N
b11000 "
b11000 /
b11000 E
b11000 H
b11000 J
1#
#60000
0#
#65000
1&
b0 6
b0 @
b0 o
b0 ""
b0 &"
b111111111111111111111111111111111 |
b0 n
b0 t
b0 k
b0 {
b0 v
b11111111111111111111111111111111 ~
b0 u
b11111111111111111111111111111111 }
b0 i
b0 j
b1010100 P
b1010100 a
b0 4
b0 X
b0 h
b0 q
b0 y
b1010100 %"
b1010100 ("
b1010100 ,
b1010100 O
b1010100 $"
b0 S
12
01
10
b0 (
b0 M
b0 #"
b0 '"
b0 T
b0 b
b0 W
b0 [
b100000000110 D
1-
b0 Q
b0 _
b111 V
b111 `
b11 Z
b0 ]
b111 \
b1000000000000 A
b100000000110 B
b11 ?
b1 <
b11 :
b100000100010 C
b100000100010 G
b1001110000011 !
b1001110000011 %
b1001110000011 3
b1001110000011 =
b1001110000011 F
b1001110000011 I
b1001110000011 L
b1001110000011 Y
b100000 '
b100000 N
b11100 "
b11100 /
b11100 E
b11100 H
b11100 J
1#
#70000
0#
#75000
b100100 P
b100100 a
bz %"
bz ("
b0 ,
b0 O
b0 $"
1)
02
00
b11111111111111111111111111100000 D
bx 7
bx >
bx e
08
0-
1.
b11111 R
b11111 ^
b1 Q
b1 _
b1 V
b1 `
b1101111 Z
b11111111111111111111111111100001 ]
b11111111111111111111111111100001 \
b11111111111111111111111111100000 A
b11111111111111111111111111100000 B
b1101111 ?
b1111111 ;
b111 <
b1101111 :
b0 C
b0 G
b11111110000111111111000011101111 !
b11111110000111111111000011101111 %
b11111110000111111111000011101111 3
b11111110000111111111000011101111 =
b11111110000111111111000011101111 F
b11111110000111111111000011101111 I
b11111110000111111111000011101111 L
b11111110000111111111000011101111 Y
b100100 '
b100100 N
b100000 "
b100000 /
b100000 E
b100000 H
b100000 J
1#
#80000
0#
#85000
0&
b10100 ,
b10100 O
b10100 $"
b10100 6
b10100 @
b10100 o
b10100 ""
b10100 &"
b111 |
b10100 n
b10100 t
b11111111111111111111111111101100 k
b11111111111111111111111111101100 {
b10100 v
b11111111111111111111111111101011 ~
b10100 u
b11111111111111111111111111101011 }
b10100 i
b10100 j
b10100 4
b10100 X
b10100 h
b10100 q
b10100 y
b10100 S
b10100 W
b10100 [
0)
b100000000100 D
b101 7
b101 >
b101 e
1-
18
0.
b0 R
b0 ^
b10100 Q
b10100 _
b101 V
b101 `
b10011 Z
b10100 ]
b101 \
b10100 A
b100000000100 B
b10011 ?
b0 ;
b0 <
b10011 :
b100000000100 C
b100000000100 G
b10100 P
b10100 a
b1010000000000001010010011 !
b1010000000000001010010011 %
b1010000000000001010010011 3
b1010000000000001010010011 =
b1010000000000001010010011 F
b1010000000000001010010011 I
b1010000000000001010010011 L
b1010000000000001010010011 Y
b100 '
b100 N
b0 "
b0 /
b0 E
b0 H
b0 J
1#
#90000
0#
#95000
b100011 P
b100011 a
b100011 ,
b100011 O
b100011 $"
b1 |
b100011 6
b100011 @
b100011 o
b100011 ""
b100011 &"
b100011 n
b100011 t
b11111111111111111111111111011101 k
b11111111111111111111111111011101 {
b100011 v
b11111111111111111111111111011100 ~
b100011 u
b11111111111111111111111111011100 }
b100011 i
b100011 j
b100011 4
b100011 X
b100011 h
b100011 q
b100011 y
b100011 S
b100011 W
b100011 [
b100110 D
b11 Q
b11 _
b110 V
b110 `
b100011 ]
b100110 \
b100000100010 A
b100110 B
b1 ;
b101010 C
b101010 G
b10001100000000001100010011 !
b10001100000000001100010011 %
b10001100000000001100010011 3
b10001100000000001100010011 =
b10001100000000001100010011 F
b10001100000000001100010011 I
b10001100000000001100010011 L
b10001100000000001100010011 Y
b1000 '
b1000 N
b100 "
b100 /
b100 E
b100 H
b100 J
1#
#100000
0#
#105000
b110001 P
b110001 a
b110001 ,
b110001 O
b110001 $"
b110001 6
b110001 @
b110001 o
b110001 ""
b110001 &"
b110001 n
b110001 t
b11111111111111111111111111001111 k
b11111111111111111111111111001111 {
b110001 v
b11111111111111111111111111001110 ~
b110001 u
b11111111111111111111111111001110 }
b110001 i
b110001 j
b110001 4
b110001 X
b110001 h
b110001 q
b110001 y
b110001 S
b110001 W
b110001 [
b100000100110 D
b10001 Q
b10001 _
b111 V
b111 `
b110001 ]
b100111 \
b100000110000 A
b100000100110 B
b100000101110 C
b100000101110 G
b11000100000000001110010011 !
b11000100000000001110010011 %
b11000100000000001110010011 3
b11000100000000001110010011 =
b11000100000000001110010011 F
b11000100000000001110010011 I
b11000100000000001110010011 L
b11000100000000001110010011 Y
b1100 '
b1100 N
b1000 "
b1000 /
b1000 E
b1000 H
b1000 J
1#
#110000
0#
#115000
b1010100 P
b1010100 a
b1010100 ,
b1010100 O
b1010100 $"
b1010100 6
b1010100 @
b1010100 o
b1010100 ""
b1010100 &"
b1000110 r
b1010100 n
b1010100 t
b11111 |
b11111111111111111111111111110010 k
b11111111111111111111111111110010 {
b100001 w
b10010 v
b10 !"
b11111111111111111111111111101101 ~
b100001 f
b110011 i
b10010 j
b0 W
b0 [
b100011 5
b100011 K
b100011 g
b100011 p
b100011 x
b100011 U
b100011 c
b110001 (
b110001 M
b110001 #"
b110001 '"
b110001 T
b110001 b
b100000000100 D
08
b110 R
b110 ^
b111 Q
b111 _
b101 V
b101 `
b110011 Z
b111 ]
b101 \
b110000100000000110 A
b100000000100 B
b110011 ?
b0 ;
b110011 :
b100000010000 C
b100000010000 G
b11100110000001010110011 !
b11100110000001010110011 %
b11100110000001010110011 3
b11100110000001010110011 =
b11100110000001010110011 F
b11100110000001010110011 I
b11100110000001010110011 L
b11100110000001010110011 Y
b10000 '
b10000 N
b1100 "
b1100 /
b1100 E
b1100 H
b1100 J
1#
#120000
0#
#125000
1&
b0 P
b0 a
b0 ,
b0 O
b0 $"
b111111111111111111111111111111111 |
b0 6
b0 @
b0 o
b0 ""
b0 &"
b0 r
b0 n
b0 t
b0 k
b0 {
b0 u
b11111111111111111111111111111111 }
b0 w
b0 v
b0 !"
b11111111111111111111111111111111 ~
b0 4
b0 X
b0 h
b0 q
b0 y
b0 f
b0 i
b0 j
11
b0 S
b0 5
b0 K
b0 g
b0 p
b0 x
b0 U
b0 c
b1010100 (
b1010100 M
b1010100 #"
b1010100 '"
b1010100 T
b1010100 b
b0 D
0-
18
b0 R
b0 ^
b101 Q
b101 _
b0 V
b0 `
b100011 Z
b101 ]
b0 \
b10100000000100 A
b0 B
b100011 ?
b10 <
b100011 :
b10000 C
b10000 G
b10100000010000000100011 !
b10100000010000000100011 %
b10100000010000000100011 3
b10100000010000000100011 =
b10100000010000000100011 F
b10100000010000000100011 I
b10100000010000000100011 L
b10100000010000000100011 Y
b10100 '
b10100 N
b10000 "
b10000 /
b10000 E
b10000 H
b10000 J
1#
#130000
0#
#135000
0&
b100 P
b100 a
b100 ,
b100 O
b100 $"
b100 6
b100 @
b100 o
b100 ""
b100 &"
b111 |
b100 n
b100 t
b11111111111111111111111111111100 k
b11111111111111111111111111111100 {
b100 v
b11111111111111111111111111111011 ~
b100 u
b11111111111111111111111111111011 }
b100 i
b100 j
b100 4
b100 X
b100 h
b100 q
b100 y
b100 S
b100 W
b100 [
b100011 (
b100011 M
b100011 #"
b100011 '"
b100011 T
b100011 b
b100 D
b110 Q
b110 _
b100 V
b100 `
b110 ]
b100 \
b10000000000110 A
b100 B
b11000 C
b11000 G
b11000000010001000100011 !
b11000000010001000100011 %
b11000000010001000100011 3
b11000000010001000100011 =
b11000000010001000100011 F
b11000000010001000100011 I
b11000000010001000100011 L
b11000000010001000100011 Y
b11000 '
b11000 N
b10100 "
b10100 /
b10100 E
b10100 H
b10100 J
1#
#140000
0#
#145000
b1000 P
b1000 a
b1000 ,
b1000 O
b1000 $"
b1111 |
b1000 6
b1000 @
b1000 o
b1000 ""
b1000 &"
b1000 n
b1000 t
b11111111111111111111111111111000 k
b11111111111111111111111111111000 {
b1000 v
b11111111111111111111111111110111 ~
b1000 u
b11111111111111111111111111110111 }
b1000 i
b1000 j
b1000 4
b1000 X
b1000 h
b1000 q
b1000 y
b1000 S
b1000 W
b1000 [
b110001 (
b110001 M
b110001 #"
b110001 '"
b110001 T
b110001 b
b1000 D
b111 Q
b111 _
b1000 V
b1000 `
b111 ]
b1000 \
b10100000000110 A
b1000 B
b100000 C
b100000 G
b11100000010010000100011 !
b11100000010010000100011 %
b11100000010010000100011 3
b11100000010010000100011 =
b11100000010010000100011 F
b11100000010010000100011 I
b11100000010010000100011 L
b11100000010010000100011 Y
b11100 '
b11100 N
b11000 "
b11000 /
b11000 E
b11000 H
b11000 J
1#
#150000
0#
#155000
1&
b0 6
b0 @
b0 o
b0 ""
b0 &"
b111111111111111111111111111111111 |
b0 n
b0 t
b0 k
b0 {
b0 v
b11111111111111111111111111111111 ~
b0 u
b11111111111111111111111111111111 }
b0 i
b0 j
b1010100 P
b1010100 a
b0 4
b0 X
b0 h
b0 q
b0 y
b1010100 %"
b1010100 ("
b1010100 ,
b1010100 O
b1010100 $"
b0 S
12
01
10
b0 (
b0 M
b0 #"
b0 '"
b0 T
b0 b
b0 W
b0 [
b100000000110 D
1-
b0 Q
b0 _
b111 V
b111 `
b11 Z
b0 ]
b111 \
b1000000000000 A
b100000000110 B
b11 ?
b1 <
b11 :
b100000100010 C
b100000100010 G
b1001110000011 !
b1001110000011 %
b1001110000011 3
b1001110000011 =
b1001110000011 F
b1001110000011 I
b1001110000011 L
b1001110000011 Y
b100000 '
b100000 N
b11100 "
b11100 /
b11100 E
b11100 H
b11100 J
1#
#160000
0#
#165000
b100100 P
b100100 a
bz %"
bz ("
b0 ,
b0 O
b0 $"
1)
02
00
b11111111111111111111111111100000 D
bx 7
bx >
bx e
0-
08
1.
b11111 R
b11111 ^
b1 Q
b1 _
b1 V
b1 `
b1101111 Z
b11111111111111111111111111100001 ]
b11111111111111111111111111100001 \
b11111111111111111111111111100000 A
b11111111111111111111111111100000 B
b1101111 ?
b1111111 ;
b111 <
b1101111 :
b0 C
b0 G
b11111110000111111111000011101111 !
b11111110000111111111000011101111 %
b11111110000111111111000011101111 3
b11111110000111111111000011101111 =
b11111110000111111111000011101111 F
b11111110000111111111000011101111 I
b11111110000111111111000011101111 L
b11111110000111111111000011101111 Y
b100100 '
b100100 N
b100000 "
b100000 /
b100000 E
b100000 H
b100000 J
1#
#170000
0#
#175000
0&
b10100 ,
b10100 O
b10100 $"
b10100 6
b10100 @
b10100 o
b10100 ""
b10100 &"
b111 |
b10100 n
b10100 t
b11111111111111111111111111101100 k
b11111111111111111111111111101100 {
b10100 v
b11111111111111111111111111101011 ~
b10100 u
b11111111111111111111111111101011 }
b10100 i
b10100 j
b10100 4
b10100 X
b10100 h
b10100 q
b10100 y
b10100 S
b10100 W
b10100 [
0)
b100000000100 D
b101 7
b101 >
b101 e
18
1-
0.
b0 R
b0 ^
b10100 Q
b10100 _
b101 V
b101 `
b10011 Z
b10100 ]
b101 \
b10100 A
b100000000100 B
b10011 ?
b0 ;
b0 <
b10011 :
b100000000100 C
b100000000100 G
b10100 P
b10100 a
b1010000000000001010010011 !
b1010000000000001010010011 %
b1010000000000001010010011 3
b1010000000000001010010011 =
b1010000000000001010010011 F
b1010000000000001010010011 I
b1010000000000001010010011 L
b1010000000000001010010011 Y
b100 '
b100 N
b0 "
b0 /
b0 E
b0 H
b0 J
1#
#180000
0#
#185000
b100011 P
b100011 a
b100011 ,
b100011 O
b100011 $"
b1 |
b100011 6
b100011 @
b100011 o
b100011 ""
b100011 &"
b100011 n
b100011 t
b11111111111111111111111111011101 k
b11111111111111111111111111011101 {
b100011 v
b11111111111111111111111111011100 ~
b100011 u
b11111111111111111111111111011100 }
b100011 i
b100011 j
b100011 4
b100011 X
b100011 h
b100011 q
b100011 y
b100011 S
b100011 W
b100011 [
b100110 D
b11 Q
b11 _
b110 V
b110 `
b100011 ]
b100110 \
b100000100010 A
b100110 B
b1 ;
b101010 C
b101010 G
b10001100000000001100010011 !
b10001100000000001100010011 %
b10001100000000001100010011 3
b10001100000000001100010011 =
b10001100000000001100010011 F
b10001100000000001100010011 I
b10001100000000001100010011 L
b10001100000000001100010011 Y
b1000 '
b1000 N
b100 "
b100 /
b100 E
b100 H
b100 J
1#
#190000
0#
#195000
b110001 P
b110001 a
b110001 ,
b110001 O
b110001 $"
b110001 6
b110001 @
b110001 o
b110001 ""
b110001 &"
b110001 n
b110001 t
b11111111111111111111111111001111 k
b11111111111111111111111111001111 {
b110001 v
b11111111111111111111111111001110 ~
b110001 u
b11111111111111111111111111001110 }
b110001 i
b110001 j
b110001 4
b110001 X
b110001 h
b110001 q
b110001 y
b110001 S
b110001 W
b110001 [
b100000100110 D
b10001 Q
b10001 _
b111 V
b111 `
b110001 ]
b100111 \
b100000110000 A
b100000100110 B
b100000101110 C
b100000101110 G
b11000100000000001110010011 !
b11000100000000001110010011 %
b11000100000000001110010011 3
b11000100000000001110010011 =
b11000100000000001110010011 F
b11000100000000001110010011 I
b11000100000000001110010011 L
b11000100000000001110010011 Y
b1100 '
b1100 N
b1000 "
b1000 /
b1000 E
b1000 H
b1000 J
1#
